{
    "name": "Lichbound.Nightshadow",
    "rootNamespace": "Lichbound",
    "references": [
        "GUID:6055be8ebefd69e48b49212b09b47b2f",
        "GUID:88cc525be6dc2fe43b0d0a455fae6377"
    ],
    "includePlatforms": [],
    "excludePlatforms": [],
    "allowUnsafeCode": false,
    "overrideReferences": false,
    "precompiledReferences": [],
    "autoReferenced": true,
    "defineConstraints": [],
    "versionDefines": [],
    "noEngineReferences": false
}